<?xml version="1.0" encoding="utf-8"?>
<!-- Generator: Adobe Illustrator 19.0.0, SVG Export Plug-In . SVG Version: 6.00 Build 0)  -->
<svg version="1.1" id="Layer_1" xmlns="http://www.w3.org/2000/svg" xmlns:xlink="http://www.w3.org/1999/xlink" x="0px" y="0px"
	 viewBox="0 0 54.798 25.182" style="enable-background:new 0 0 54.798 25.182;" xml:space="preserve">
<g id="XMLID_1_">
	<path id="XMLID_19_" d="M9.268,2.845c-0.276,0-0.5,0.224-0.5,0.5v13.409c0,0.799,0.631,1.448,1.406,1.448h34.449
		c0.775,0,1.406-0.649,1.406-1.448V3.345c0-0.276-0.224-0.5-0.5-0.5s-0.5,0.224-0.5,0.5v13.409c0,0.247-0.183,0.448-0.406,0.448
		h-3.915v-6.985c0-0.276-0.224-0.5-0.5-0.5s-0.5,0.224-0.5,0.5v6.985h-4.912v-3.201c0-0.276-0.224-0.5-0.5-0.5s-0.5,0.224-0.5,0.5
		v3.201h-5.897v-2.069c0-0.276-0.224-0.5-0.5-0.5s-0.5,0.224-0.5,0.5v2.069h-5.897v-3.201c0-0.276-0.224-0.5-0.5-0.5
		s-0.5,0.224-0.5,0.5v3.201h-4.913v-6.985c0-0.276-0.224-0.5-0.5-0.5s-0.5,0.224-0.5,0.5v6.985h-3.915
		c-0.224,0-0.406-0.201-0.406-0.448V3.345C9.768,3.068,9.544,2.845,9.268,2.845z"/>
	<path id="XMLID_20_" d="M51.442,24.182h-1.786V1.967c0.753,1.327,2.162,3.504,4.292,5.602c0.097,0.096,0.224,0.144,0.351,0.144
		c0.129,0,0.259-0.05,0.356-0.149c0.193-0.197,0.191-0.514-0.006-0.707c-2.331-2.297-3.787-4.746-4.401-5.894
		c0.184-0.074,0.315-0.252,0.315-0.463c0-0.276-0.224-0.5-0.5-0.5h-0.286H44.3h-0.286c-0.276,0-0.5,0.224-0.5,0.5
		c0,0.21,0.13,0.389,0.314,0.463c-1.337,2.488-6.681,11.128-16.429,11.128c-9.841,0-15.12-8.643-16.435-11.127
		c0.186-0.073,0.319-0.251,0.319-0.464c0-0.276-0.224-0.5-0.5-0.5H10.5H5.021H4.735c-0.276,0-0.5,0.224-0.5,0.5
		c0,0.211,0.131,0.389,0.315,0.463C3.936,2.111,2.48,4.56,0.149,6.857c-0.197,0.194-0.199,0.51-0.005,0.707
		C0.242,7.663,0.371,7.713,0.5,7.713c0.127,0,0.253-0.048,0.351-0.144C2.98,5.47,4.389,3.293,5.142,1.967v22.215H3.277
		c-0.276,0-0.5,0.224-0.5,0.5s0.224,0.5,0.5,0.5h1.865h0.5h3.547h0.579h1.786c0.276,0,0.5-0.224,0.5-0.5s-0.224-0.5-0.5-0.5H9.768
		v-3.391c0-0.276-0.224-0.5-0.5-0.5s-0.5,0.224-0.5,0.5v3.391H6.142V1h3.718c0.938,1.891,6.512,12.091,17.54,12.091
		C38.32,13.091,43.986,2.88,44.936,1h3.72v23.182H46.03v-3.391c0-0.276-0.224-0.5-0.5-0.5s-0.5,0.224-0.5,0.5v3.391h-1.864
		c-0.276,0-0.5,0.224-0.5,0.5s0.224,0.5,0.5,0.5h1.864h0.5h3.548h0.578h1.786c0.276,0,0.5-0.224,0.5-0.5
		S51.718,24.182,51.442,24.182z"/>
	<path id="XMLID_21_" d="M4.468,17.396c0-0.276-0.224-0.5-0.5-0.5H0.5c-0.276,0-0.5,0.224-0.5,0.5s0.224,0.5,0.5,0.5h3.468
		C4.245,17.896,4.468,17.673,4.468,17.396z"/>
	<path id="XMLID_22_" d="M54.298,16.896H50.83c-0.276,0-0.5,0.224-0.5,0.5s0.224,0.5,0.5,0.5h3.469c0.276,0,0.5-0.224,0.5-0.5
		S54.575,16.896,54.298,16.896z"/>
</g>
</svg>
